               _______     ___   _ _______       __   __
              / ____\ \   / / \ | |__   __|/\    \ \ / /
             | (___  \ \_/ /|  \| |  | |  /  \    \ V / 
              \___ \  \   / | . ` |  | | / /\ \    > <  
              ____) |  | |  | |\  |  | |/ ____ \  / . \ 
             |_____/   |_|  |_| \_|  |_/_/    \_\/_/ \_\                           
                                  |>>>                     
                                  |                           
                    |>>>      _  _|_  _         |>>>
                    |        |;| |;| |;|        |                  
                _  _|_  _    \\.    .  /    _  _|_  _       
               |;|_|;|_|;|    \\:     /    |;|_|;|_|;|
               \\..      /    ||: ++. |    \\.    .  /            
                \\.  ,  /     ||:+++  |     \\:  .  /
                 ||:   |_   _ ||_ . _ | _   _||:+  |        
                 || ++.|||_|;|_|;|_|;|_|;|_|;||+++ |          
                 ||: . ||:.     . .   .  ,   ||:   |                
                 ||:   ||:  ,     +       .  ||: , |      
                 ||:   ||:.     +++++      . ||:   |          
                 ||:   ||.     +++++++  .    ||: . |    
                 ||: . ||: ,   +++++++ .  .  ||:   |             

  [ o - - - o - - - - - - - - x - - - - o - - - - - - o ]
    |       |                 |         |             |
    v       v                 v         v             v
    Intro   Semantics         Syntax    Open Source   End!

