                       __________________________
               __..--/".'                        '.
       __..--""      | |                          |
     /               | |    ___________________   |
    ;                | |   :__________________/:  |
    |                | |   | Paired          '.|  |                     ^.
    |                | |   |    Programming   ||  |                    / \*.
    |                | |   |                  ||  | <—————————————————-1:1\**.
    |                | |   |  - Driving       ||  |                  /—————\***.
    |                | |   |  - Observing     ||  |                 /       \****.
    |                | |   |  - Listening     ||  |                /         \****|
    |                | |   |  - Mentoring     ||  |               /           \***|
    |                | |   |  - Be inclusive  ||  |              /             \**| 
    |                | |   |  - Checking In   ||  |             /               \*| 
    |                | |   |______......-----"\|  |            /_________________\|
    |                | |   |_______......-----"   | 
    |                | |                          |
    |                | |                  ____----|
    |                | |_____.....----|#######|---|
    |                | |______.....----""""       |
    |. ..            | |   ,                      |
    |... ....        | |  (c ----- """           .'
    |..... ......  |\|_|    ____......------"""|"
    |. .... .......| |""""""                   |
      "-._ .....  .| |                         |
          "-._.....| |             ___...---"""'
              "-._.| | ___...---"""
                  """""            
